{
  "version": 19,
  "tenantid": "CampusBooks",
  "mobappid": 2759,
  "appName": "Campus Books",
  "appDisplayName": "Campus Books",
  "homeScreenTemplate": "<script>\r\n    MyCampusApp.rootScope.animatepage = function(currentstyle) {\r\n        $(\".app-body\").addClass(currentstyle);\r\n    }\r\n    var hideInterval = setInterval(function() {\r\n        var animatecss = $(\"#animatecss\");\r\n        if (!animatecss || animatecss.length <= 0) {\r\n            $.ajax({\r\n                url: \"https://raw.githubusercontent.com/daneden/animate.css/master/animate.css\",\r\n                dataType: \"text\",\r\n                success: function(data) {\r\n                    $(\"head\").append(\"<style id='animatecss'>\" + data + \"<\/style>\");\r\n                    clearInterval(hideInterval);\r\n                }\r\n            });\r\n        }\r\n    }, 2000);\r\n    if (!MyCampusApp.rootScope.cangelistadded) {\r\n        MyCampusApp.rootScope.$on(\"$routeChangeStart\", function(event, next, current) {\r\n            $(\".app-body\").attr(\"class\", \"app-body animated \");\r\n        });\r\n        MyCampusApp.rootScope.$on(\"$routeChangeSuccess\", function(event, next, current) {\r\n            currentstyle = \"bounceInRight\";\r\n            if (next.loadedTemplateUrl == \"partials/home.html\" && current.loadedTemplateUrl != \"partials/home.html\") {\r\n                currentstyle = \"bounceInLeft\";\r\n            } else if(current.loadedTemplateUrl != \"partials/home.html\") {\r\n                if (next.params.appid == current.params.appid && next.params.appid == next.params.pageid) {\r\n                    currentstyle = \"bounceInLeft\";\r\n                }\r\n              \tif (MyCampusApp.rootScope.ppage) {\r\n                \tif (MyCampusApp.rootScope.ppage.appid == next.params.appid && MyCampusApp.rootScope.ppage.pageid == next.params.pageid) {\r\n                    \tcurrentstyle = \"bounceInLeft\";\r\n                \t}\r\n                }\r\n            }\r\n            $(\".app-body\").addClass(currentstyle);\r\n            $(\".app-body\").addClass(\"animated\");\r\n            MyCampusApp.rootScope.cpage = next.params;\r\n            MyCampusApp.rootScope.ppage = current.params;\r\n        });\r\n        MyCampusApp.rootScope.cangelistadded = true;\r\n    }\r\n<\/script>",
  "middlewareServerUrl": null,
  "feedbackEmail": null,
  "backgroundurl": "CampusBooks/background.png",
  "brandingurl": "CampusBooks/branding.png",
  "customStyle": "#branding {\r\n  position:absolute !important;\r\n  bottom:40px;\r\n  left:0px !important;\r\n  right:0px !important;\r\n  width:50% !important;\r\n  margin:auto !important;\r\n}\r\nbody {\r\n   position:absolute;\r\n   width:100%;\r\n   height:100%;\r\n   background-size:100% 100% !important;\r\n}\r\n.icon {\r\n   width:56px !important;\r\n   height:56px !important;\r\n}\r\n.campuseai-Info {\r\n  color:white;\r\n}\r\n.dockicon:after {\r\n   bottom:0px !important;\r\n}\r\n\r\n.dockicon {\r\n   margin-bottom:25px !important;\r\n}\r\n\r\n\r\n.blockUI i{\r\n   color:white !important;\r\n}\r\n\r\n@media (min-width: 768px) { \r\n   #branding {\r\n      width:50% !important;\r\n      margin:auto;    \r\n   }\r\n   .icon {\r\n      width:102px !important;\r\n      height:102px !important;\r\n    }\r\n}\r\n\r\n.promptumenu_nav a.active {\r\n   background:#fff;\r\n   border-radius:50%;\r\n   width:10px;\r\n   height:10px;\r\n}\r\n\r\n.promptumenu_nav a {\r\n  background:#00162f;\r\n   border-radius:50%;\r\n   width:10px;\r\n   height:10px;\r\n}\r\n.promptumenu_window {\r\n   overflow:visible !important; \r\n}\r\n\r\n.promptumenu_nav {\r\nmargin-bottom:-3px;\r\n}\r\n\r\n.app-body {\r\n   padding-bottom:19px !important;\r\n}\r\n\r\n.blockUI {\r\n  margin:auto !important;\r\n  left:0px  !important;\r\n  right:0px !important;\r\n  width:auto !important;\r\n}\r\n\r\n#homedata .campuseai-Info {\r\n  width:76px !important;\r\n  margin-left:-10px;\r\n}\r\n@media (min-width : 320px) and (max-width : 480px) { \r\n   .icon { width:56px !important;\r\n     height:56px !important;\r\n   }\r\n   #homedata .campuseai-Info {\r\n     width:76px !important;\r\n     margin-left:-10px;\r\n   }\r\n}\r\n\r\n@media (min-width : 320px) and (max-width : 568px) { \r\n   .icon { width:63px !important;\r\n\t   height:63px !important;\r\n   }\r\n   #homedata .campuseai-Info {\r\n     width:83px !important;\r\n     margin-left:-10px;\r\n   }\r\n}\r\n\r\n#mainSidebar .list-group-item {\r\n  border-bottom:1px solid #000 !important;\r\n}\r\n\r\n#homedata .campuseai-Info {\r\n  font-weight:bold;\r\n  text-shadow:2px 2px 2px #000;\r\n}.navbar-app, .sidebar, #mainSidebar { background : #27277d !important; } .navbar-brand, .navbar-absolute-top .btn-navbar { color : #ffffff !important; } .navbar-absolute-bottom .navbar-inverse { background :  !important; } .navbar-absolute-bottom .navbar-inverse { color :  !important; } .app { background : #ebebeb !important; } .campuseai-Info { color :  !important; } #mainSidebar .list-group-item { background :  !important; } #mainSidebar .list-group-item { color :  !important; } #mainSidebar .appgroup { background :  !important; } #mainSidebar .appgroup { color :  !important; } .btn-primary { background :  !important; } .btn-primary { color :  !important; } .btn-primary { border-color :  !important; } ",
  "authFunction": "function authFunction(uname, password, $http, $rootScope, success, error) {\r\n  alert (\"Tenant from Mycampus : \" + MyCampusApp.config.tenant);\r\n  alert (\"Tenant from Jstorage : \" + $.jStorage.get('tenant'));\r\n  $.jStorage.deleteKey('tenant');\r\n    var authSuccess = success;\r\n    var authError = error;\r\n    //Peoplesoft authentication\r\n    /*\r\n    var url = $rootScope.middlewareServerUrl + \"/services/ps/psholds\";\r\n    var data = {};\r\n    if (window.device) {\r\n        data = \"userId=\" + uname + \"&password=\" + password;\r\n    } else {\r\n        url = \"/websimulator/json?url=\" + url;\r\n        data = {\r\n            method: \"POST\",\r\n            body: \"userId=\" + uname + \"&password=\" + password\r\n        };\r\n    }\r\n    $.blockUI({\r\n        message: '<div style=\"margin: 2px; vertical-align: middle; display: inline-block\"><i class=\"icon-cog icon-spin icon-4x\"><\/i><h3>Authenticating<\/h3><\/div>'\r\n    });\r\n    alert(\"URL : \" + url);\r\n    $http.post(url, data).success(function (data, status, headers, config) {\r\n        success(data);\r\n        $.unblockUI();\r\n    }).error(function (data, status, headers, config) {\r\n        error(data);\r\n        $.unblockUI();\r\n    });\r\n*/\r\n    //Banner Authentication with CAS\r\n\r\n    /*var url = \"https://my.curry.edu/cas/v1/tickets/\";\r\n    var data = {};\r\n    if (window.device) {\r\n        data = \"username=\" + uname + \"&password=\" + password;\r\n    } else {\r\n        url = \"/websimulator/text?url=\" + url;\r\n        data = {\r\n            method: \"POST\",\r\n            body: \"username=\" + uname + \"&password=\" + password\r\n        };\r\n    }\r\n\r\n    $rootScope.generateST = function (tgt, service, callback) {\r\n        var data = {};\r\n        if (window.device) {\r\n            data = \"service=\" + service;\r\n        } else {\r\n            url = \"/websimulator/text?url=\" + \"https://my.curry.edu/cas/v1/tickets/\";\r\n            data = {\r\n                method: \"POST\",\r\n                body: \"service=\" + service\r\n            };\r\n        }\r\n\r\n        $.ajax({\r\n            url: url + tgt,\r\n            type: \"POST\",\r\n            async: true,\r\n            data: data,\r\n            error: function (response) {\r\n                alert(\"Error : \" + response);\r\n\r\n            },\r\n            success: function (data) {\r\n                //alert(\"Success : \" + data);\r\n                callback(data);\r\n            }\r\n        });\r\n\r\n    };\r\n\r\n    $.blockUI({\r\n        message: '<div style=\"margin: 2px; vertical-align: middle; display: inline-block\"><i class=\"icon-cog icon-spin icon-4x\"><\/i><h3>Authenticating<\/h3><\/div>'\r\n    });\r\n    $.ajax({\r\n        url: url,\r\n        type: \"POST\",\r\n        async: true,\r\n        data: data,\r\n        error: function (response) {\r\n            $.unblockUI();\r\n        },\r\n        success: function (data) {\r\n            //alert(\"Success : \" + data);\r\n            $.unblockUI();\r\n\r\n        },\r\n        complete: function (response, textStatus) {\r\n            //alert(\"complete : \" + response + \"  text status : \" + textStatus);\r\n            $.unblockUI();\r\n            if (textStatus == \"success\" && response.status == 201) {\r\n                var str = response.getResponseHeader('Location');\r\n                var tgtTicket = str.substr(str.lastIndexOf('/') + 1);\r\n                //generateST(tgtTicket);\r\n                success({\r\n                    \"ticket\": tgtTicket\r\n                });\r\n                $rootScope.$apply(function () {\r\n\r\n                    $rootScope.setRoute(\"/home\");\r\n\r\n                });\r\n\r\n\r\n            } else {\r\n                success({\r\n                    \"error\": \"Oops! Cannot log you in. Please check your login details.\"\r\n                });\r\n            }\r\n        }\r\n\r\n    });*/\r\n\r\n\r\n    //Banner Authentication with LDAP - middlware auth\r\n\r\n    var url = $rootScope.middlewareServerUrl + \"/bannermobile2/services/authenticate/login\";\r\n    var data = {};\r\n    if (window.device) {\r\n        data = \"username=\" + uname + \"&password=\" + password;\r\n    } else {\r\n        url = \"/websimulator/json?url=\" + url;\r\n        data = {\r\n            method: \"POST\",\r\n            body: \"username=\" + uname + \"&password=\" + password\r\n        };\r\n    }\r\n    var authUrl = url;\r\n    var authData = data;\r\n    $rootScope.generateST = function(tgt, service, callback) {\r\n        //Bypassing the ST as there is no service ticket required here..\r\n        callback(tgt);\r\n    };\r\n\r\n    $rootScope.postAPI = function(endpoint, postdata, callback) {\r\n        $.blockUI();\r\n        $rootScope.generateST($rootScope.ticket, endpoint, function(st) {\r\n            var serviceurl = endpoint + \"?ticket=\" + st;\r\n            var url = \"\";\r\n            var proxyMethod = \"POST\";\r\n            var proxyData = postdata;\r\n            if (window.device) {\r\n                url = serviceurl;\r\n            } else {\r\n                url = \"/websimulator/json?url=\" + serviceurl;\r\n                proxyMethod = \"POST\";\r\n                proxyData = {\r\n                    method: \"POST\",\r\n                    body: postdata\r\n                }\r\n            }\r\n            $http({\r\n                method: proxyMethod,\r\n                url: url,\r\n                data: proxyData\r\n            }).\r\n            success(function(data, status, headers, config) {\r\n                $.unblockUI();\r\n                callback(data, status, headers, config);\r\n            }).\r\n            error(function(data, status, headers, config) {\r\n                $.unblockUI();\r\n                //alert(\"Error in service call : \" + data + \" Status : \" + status);\r\n                if (status == 403) { //Ticket expired.. need to relogin\r\n                    $http.post(authUrl, authData).success(function(data, status, headers, config) {\r\n                        authSuccess(data);\r\n                        $rootScope.getAPI(endpoint, callback);\r\n                    }).error(function(data, status, headers, config) {\r\n                        authError(data);\r\n\r\n                    });\r\n                }\r\n\r\n            });\r\n\r\n        });\r\n\r\n    };\r\n\r\n    $rootScope.getAPI = function(endpoint, callback) {\r\n        $.blockUI();\r\n        $rootScope.generateST($rootScope.ticket, endpoint, function(st) {\r\n            var serviceurl = endpoint + \"?ticket=\" + st;\r\n            var url = \"\";\r\n            var proxyMethod = \"GET\";\r\n            var proxyData = {};\r\n            if (window.device) {\r\n                url = serviceurl;\r\n            } else {\r\n                url = \"/websimulator/json?url=\" + encodeURIComponent(serviceurl);\r\n                proxyMethod = \"POST\";\r\n                proxyData = {\r\n                    method: \"GET\"\r\n                }\r\n            }\r\n            $http({\r\n                method: proxyMethod,\r\n                url: url,\r\n                data: proxyData\r\n            }).\r\n            success(function(data, status, headers, config) {\r\n                $.unblockUI();\r\n                callback(data, status, headers, config);\r\n            }).\r\n            error(function(data, status, headers, config) {\r\n                $.unblockUI();\r\n                //alert(\"Error in service call : \" + data + \" Status : \" + status);\r\n                if (status == 403) { //Ticket expired.. need to relogin\r\n                    $http.post(authUrl, authData).success(function(data, status, headers, config) {\r\n                        authSuccess(data);\r\n                        $rootScope.getAPI(endpoint, callback);\r\n                    }).error(function(data, status, headers, config) {\r\n                        authError(data);\r\n\r\n                    });\r\n                }\r\n\r\n            });\r\n\r\n        });\r\n\r\n    };\r\n\r\n\r\n\r\n\r\n    $.blockUI({\r\n        message: '<div style=\"margin: 2px; vertical-align: middle; display: inline-block\"><i class=\"icon-cog icon-spin icon-4x\"><\/i><h3>Authenticating<\/h3><\/div>'\r\n    });\r\n\r\n    $http.post(url, data).success(function(data, status, headers, config) {\r\n        success(data);\r\n        $.unblockUI();\r\n    }).error(function(data, status, headers, config) {\r\n        error(data);\r\n        $.unblockUI();\r\n    });\r\n\r\n}",
  "forgotPasswordUrl": null,
  "reportissueEmail": null,
  "iconWidth": 70,
  "apps": 
  [
    {
      "id": 35342,
      "name": "CampusBooks",
      "displayname": "Campus Books",
      "logo": "CampusBooks/CampusBooks.png",
      "logourl": "CampusBooks/CampusBooks.png",
      "description": "Campus Books",
      "appFeatureType": "Public",
      "roles": null,
      "showInDock": false,
      "showInHome": true,
      "networkrequired": true,
      "analytics": false,
      "pages": 
      [
        {
          "pageid": "CampusBooks",
          "pageTemplate": "<div><\/div>",
          "pageprocessor": "function pageprocessorCampusBooks(pagedef, $scope, $routeParams, $compile, $http, $rootScope, $sce, $window, $location) {\r\n    var data1 = $compile($(pagedef.datatemplate))($scope);\r\n    $(\"#appContent\").append(data1);\r\n    $scope.keyword = \"\";\r\n    $scope.searchChange = function () {\r\n        if ($scope.keyword.length == 0) {\r\n            $(\"#searchLogo\").removeClass('searchClass');\r\n        } else {\r\n            $(\"#searchLogo\").addClass('searchClass');\r\n        }\r\n    }\r\n\r\n    $scope.getSearchResult = function () {\r\n        $.blockUI();\r\n\r\n        try {\r\n            var url = \"http://api2.campusbooks.com/12/rest/search?key=KmT8InKN7JnIoA6UUCKq&keywords=\" + $scope.keyword + \"&format=json\";\r\n            var proxyMethod = \"GET\";\r\n            var proxyData = \"\";\r\n            if (window.device) {} else {\r\n                url = \"/websimulator/json?url=\" + url;\r\n                proxyMethod = \"POST\";\r\n                proxyData = {\r\n                    method: \"GET\"\r\n                    //body: searchparams\r\n                }\r\n            }\r\n            $http({\r\n                method: proxyMethod,\r\n                url: url,\r\n                data: proxyData\r\n            }).then(function (res) {\r\n                console.log(JSON.stringify(res.data));\r\n\r\n                alert(JSON.stringify(res.data));\r\n\r\n                $.unblockUI();\r\n            }, function (err) {\r\n                $scope.err = err;\r\n                $.unblockUI();\r\n            });\r\n        } catch (e) {\r\n        }\r\n\r\n    }\r\n}",
          "datatemplate": "<style>\r\n    @import url(http://fonts.googleapis.com/css?family=Open+Sans:300italic,400italic,700italic,300,400,700);\r\n\r\n    .openSans {\r\n        font-family: 'Open Sans', sans-serif;\r\n    }\r\n\r\n    #appContent {\r\n        height: 100% !important;\r\n        background: #EBEBEB;\r\n    }\r\n\r\n    .has-navbar-top .app-body {\r\n        padding-top: 47px;\r\n    }\r\n\r\n    .navbar-absolute-bottom {\r\n        top: auto;\r\n        bottom: 0;\r\n        border-bottom: 0 none;\r\n        border-top-width: 1px;\r\n        min-height: 0 !important;\r\n        height: 0 !important;\r\n    }\r\n\r\n    .navbar-absolute-top {\r\n        top: 0;\r\n        border-bottom-width: 0px !important;\r\n    }\r\n    .searchClass{\r\n        padding: 0;\r\n        margin: 0;\r\n        text-align: center;\r\n        padding-bottom: 5px;\r\n        padding-top: 5px;\r\n        background: #27227d;\r\n        color: white;\r\n    }\r\n\r\n\r\n<\/style>\r\n<div class=\"openSans\" style=\"padding: 10px 10px 10px 10px;background: #EBEBEB;border: 0;\">\r\n    <div style=\"border: 1px solid #8d8d8d;\">\r\n        <div class=\"col-xs-11 col-md-11\" style=\"padding: 5px;margin: 0;\">\r\n            <input type=\"text\" style=\"width: 100%;outline: none;border: 0;background: transparent;\"\r\n                   ng-model=\"keyword\" placeholder=\"Search here . . . \" ng-change=\"searchChange()\">\r\n        <\/div>\r\n        <div id=\"searchLogo\" class=\"col-xs-1 col-md-1\" style=\"padding: 6px 0 6px 0;margin: 0;text-align: center;\" ng-click=\"getSearchResult()\">\r\n            <i class=\"fa fa-search\" aria-hidden=\"true\"><\/i>\r\n        <\/div>\r\n        <div style=\"clear: both;\"><\/div>\r\n    <\/div>\r\n<\/div>"
        }
      ]
    }
  ],
  "pages": 
  [
  ]
}